{
  "query": {
    "format": [
      {
        "output": "mp4",
        "video_codec": "libx264",
        "height": "960",
        "audio_bitrate": "256",
        "destination": {
          "url": "ftp://{user}{pass}@{host}/processed/done.mp4",
          "key": "{user}",
          "secret": "{pass}",
          "is_passive": 1
        },
        "optimize_bitrate": 1,
        "adjust_crf": "-6",
        "audio_codec": "aac",
        "video_codec_parameters": {
          "preset": "slow"
        },
        "tag": "HQ"
      }
    ],
    "encoder_version": "2",
    "source": "ftp://{user}{pass}@{host}/processing/1296283611.mp4"
  }
}